<?xml version="1.0" encoding="UTF-8"?>
<testsuite xmlns:xsi="http://www.w3.org/2001/XMLSchema-instance" xsi:noNamespaceSchemaLocation="https://maven.apache.org/surefire/maven-surefire-plugin/xsd/surefire-test-report-3.0.xsd" version="3.0" name="TestSuite" time="15.791" tests="3" errors="0" skipped="0" failures="0">
  <properties>
    <property name="sun.desktop" value="windows"/>
    <property name="awt.toolkit" value="sun.awt.windows.WToolkit"/>
    <property name="file.encoding.pkg" value="sun.io"/>
    <property name="java.specification.version" value="1.8"/>
    <property name="sun.cpu.isalist" value="amd64"/>
    <property name="sun.jnu.encoding" value="Cp1252"/>
    <property name="java.class.path" value="C:\ProgA\WorkSpace\Auto-Pokemon\target\test-classes;C:\ProgA\WorkSpace\Auto-Pokemon\target\classes;C:\Users\rogelio.velazquez\.m2\repository\org\testng\testng\6.8\testng-6.8.jar;C:\Users\rogelio.velazquez\.m2\repository\junit\junit\4.10\junit-4.10.jar;C:\Users\rogelio.velazquez\.m2\repository\org\hamcrest\hamcrest-core\1.1\hamcrest-core-1.1.jar;C:\Users\rogelio.velazquez\.m2\repository\org\beanshell\bsh\2.0b4\bsh-2.0b4.jar;C:\Users\rogelio.velazquez\.m2\repository\com\beust\jcommander\1.27\jcommander-1.27.jar;C:\Users\rogelio.velazquez\.m2\repository\org\yaml\snakeyaml\1.6\snakeyaml-1.6.jar;C:\Users\rogelio.velazquez\.m2\repository\org\seleniumhq\selenium\selenium-java\3.141.59\selenium-java-3.141.59.jar;C:\Users\rogelio.velazquez\.m2\repository\org\seleniumhq\selenium\selenium-api\3.141.59\selenium-api-3.141.59.jar;C:\Users\rogelio.velazquez\.m2\repository\org\seleniumhq\selenium\selenium-chrome-driver\3.141.59\selenium-chrome-driver-3.141.59.jar;C:\Users\rogelio.velazquez\.m2\repository\org\seleniumhq\selenium\selenium-edge-driver\3.141.59\selenium-edge-driver-3.141.59.jar;C:\Users\rogelio.velazquez\.m2\repository\org\seleniumhq\selenium\selenium-firefox-driver\3.141.59\selenium-firefox-driver-3.141.59.jar;C:\Users\rogelio.velazquez\.m2\repository\org\seleniumhq\selenium\selenium-ie-driver\3.141.59\selenium-ie-driver-3.141.59.jar;C:\Users\rogelio.velazquez\.m2\repository\org\seleniumhq\selenium\selenium-opera-driver\3.141.59\selenium-opera-driver-3.141.59.jar;C:\Users\rogelio.velazquez\.m2\repository\org\seleniumhq\selenium\selenium-remote-driver\3.141.59\selenium-remote-driver-3.141.59.jar;C:\Users\rogelio.velazquez\.m2\repository\org\seleniumhq\selenium\selenium-safari-driver\3.141.59\selenium-safari-driver-3.141.59.jar;C:\Users\rogelio.velazquez\.m2\repository\org\seleniumhq\selenium\selenium-support\3.141.59\selenium-support-3.141.59.jar;C:\Users\rogelio.velazquez\.m2\repository\net\bytebuddy\byte-buddy\1.8.15\byte-buddy-1.8.15.jar;C:\Users\rogelio.velazquez\.m2\repository\org\apache\commons\commons-exec\1.3\commons-exec-1.3.jar;C:\Users\rogelio.velazquez\.m2\repository\com\google\guava\guava\25.0-jre\guava-25.0-jre.jar;C:\Users\rogelio.velazquez\.m2\repository\com\google\code\findbugs\jsr305\1.3.9\jsr305-1.3.9.jar;C:\Users\rogelio.velazquez\.m2\repository\org\checkerframework\checker-compat-qual\2.0.0\checker-compat-qual-2.0.0.jar;C:\Users\rogelio.velazquez\.m2\repository\com\google\errorprone\error_prone_annotations\2.1.3\error_prone_annotations-2.1.3.jar;C:\Users\rogelio.velazquez\.m2\repository\com\google\j2objc\j2objc-annotations\1.1\j2objc-annotations-1.1.jar;C:\Users\rogelio.velazquez\.m2\repository\org\codehaus\mojo\animal-sniffer-annotations\1.14\animal-sniffer-annotations-1.14.jar;C:\Users\rogelio.velazquez\.m2\repository\com\squareup\okhttp3\okhttp\3.11.0\okhttp-3.11.0.jar;C:\Users\rogelio.velazquez\.m2\repository\com\squareup\okio\okio\1.14.0\okio-1.14.0.jar;C:\Users\rogelio.velazquez\.m2\repository\com\squareup\retrofit2\retrofit\2.5.0\retrofit-2.5.0.jar;C:\Users\rogelio.velazquez\.m2\repository\com\squareup\retrofit2\converter-jackson\2.5.0\converter-jackson-2.5.0.jar;C:\Users\rogelio.velazquez\.m2\repository\com\fasterxml\jackson\core\jackson-databind\2.9.4\jackson-databind-2.9.4.jar;C:\Users\rogelio.velazquez\.m2\repository\com\fasterxml\jackson\core\jackson-annotations\2.9.0\jackson-annotations-2.9.0.jar;C:\Users\rogelio.velazquez\.m2\repository\com\fasterxml\jackson\core\jackson-core\2.9.4\jackson-core-2.9.4.jar;C:\Users\rogelio.velazquez\.m2\repository\com\squareup\retrofit2\converter-gson\2.5.0\converter-gson-2.5.0.jar;C:\Users\rogelio.velazquez\.m2\repository\com\google\code\gson\gson\2.8.2\gson-2.8.2.jar;C:\Users\rogelio.velazquez\.m2\repository\com\squareup\retrofit2\converter-scalars\2.5.0\converter-scalars-2.5.0.jar;C:\Users\rogelio.velazquez\.m2\repository\com\squareup\okhttp3\logging-interceptor\3.9.0\logging-interceptor-3.9.0.jar;C:\Users\rogelio.velazquez\.m2\repository\org\slf4j\slf4j-api\1.7.30\slf4j-api-1.7.30.jar;C:\Users\rogelio.velazquez\.m2\repository\org\slf4j\slf4j-log4j12\1.7.30\slf4j-log4j12-1.7.30.jar;C:\Users\rogelio.velazquez\.m2\repository\log4j\log4j\1.2.17\log4j-1.2.17.jar;C:\Users\rogelio.velazquez\.m2\repository\org\assertj\assertj-core\3.19.0\assertj-core-3.19.0.jar;"/>
    <property name="java.vm.vendor" value="Amazon.com Inc."/>
    <property name="sun.arch.data.model" value="64"/>
    <property name="user.variant" value=""/>
    <property name="java.vendor.url" value="https://aws.amazon.com/corretto/"/>
    <property name="user.timezone" value="America/Mexico_City"/>
    <property name="java.vm.specification.version" value="1.8"/>
    <property name="os.name" value="Windows 10"/>
    <property name="user.country" value="US"/>
    <property name="sun.java.launcher" value="SUN_STANDARD"/>
    <property name="sun.boot.library.path" value="C:\Users\rogelio.velazquez\.jdks\corretto-1.8.0_292\jre\bin"/>
    <property name="sun.java.command" value="C:\Users\rogelio.velazquez\AppData\Local\Temp\surefire4327925183247744132\surefirebooter4485058144322789421.jar C:\Users\rogelio.velazquez\AppData\Local\Temp\surefire4327925183247744132 2021-05-11T01-13-32_363-jvmRun1 surefire1289886522317378049tmp surefire_02077432139760560409tmp"/>
    <property name="surefire.test.class.path" value="C:\ProgA\WorkSpace\Auto-Pokemon\target\test-classes;C:\ProgA\WorkSpace\Auto-Pokemon\target\classes;C:\Users\rogelio.velazquez\.m2\repository\org\testng\testng\6.8\testng-6.8.jar;C:\Users\rogelio.velazquez\.m2\repository\junit\junit\4.10\junit-4.10.jar;C:\Users\rogelio.velazquez\.m2\repository\org\hamcrest\hamcrest-core\1.1\hamcrest-core-1.1.jar;C:\Users\rogelio.velazquez\.m2\repository\org\beanshell\bsh\2.0b4\bsh-2.0b4.jar;C:\Users\rogelio.velazquez\.m2\repository\com\beust\jcommander\1.27\jcommander-1.27.jar;C:\Users\rogelio.velazquez\.m2\repository\org\yaml\snakeyaml\1.6\snakeyaml-1.6.jar;C:\Users\rogelio.velazquez\.m2\repository\org\seleniumhq\selenium\selenium-java\3.141.59\selenium-java-3.141.59.jar;C:\Users\rogelio.velazquez\.m2\repository\org\seleniumhq\selenium\selenium-api\3.141.59\selenium-api-3.141.59.jar;C:\Users\rogelio.velazquez\.m2\repository\org\seleniumhq\selenium\selenium-chrome-driver\3.141.59\selenium-chrome-driver-3.141.59.jar;C:\Users\rogelio.velazquez\.m2\repository\org\seleniumhq\selenium\selenium-edge-driver\3.141.59\selenium-edge-driver-3.141.59.jar;C:\Users\rogelio.velazquez\.m2\repository\org\seleniumhq\selenium\selenium-firefox-driver\3.141.59\selenium-firefox-driver-3.141.59.jar;C:\Users\rogelio.velazquez\.m2\repository\org\seleniumhq\selenium\selenium-ie-driver\3.141.59\selenium-ie-driver-3.141.59.jar;C:\Users\rogelio.velazquez\.m2\repository\org\seleniumhq\selenium\selenium-opera-driver\3.141.59\selenium-opera-driver-3.141.59.jar;C:\Users\rogelio.velazquez\.m2\repository\org\seleniumhq\selenium\selenium-remote-driver\3.141.59\selenium-remote-driver-3.141.59.jar;C:\Users\rogelio.velazquez\.m2\repository\org\seleniumhq\selenium\selenium-safari-driver\3.141.59\selenium-safari-driver-3.141.59.jar;C:\Users\rogelio.velazquez\.m2\repository\org\seleniumhq\selenium\selenium-support\3.141.59\selenium-support-3.141.59.jar;C:\Users\rogelio.velazquez\.m2\repository\net\bytebuddy\byte-buddy\1.8.15\byte-buddy-1.8.15.jar;C:\Users\rogelio.velazquez\.m2\repository\org\apache\commons\commons-exec\1.3\commons-exec-1.3.jar;C:\Users\rogelio.velazquez\.m2\repository\com\google\guava\guava\25.0-jre\guava-25.0-jre.jar;C:\Users\rogelio.velazquez\.m2\repository\com\google\code\findbugs\jsr305\1.3.9\jsr305-1.3.9.jar;C:\Users\rogelio.velazquez\.m2\repository\org\checkerframework\checker-compat-qual\2.0.0\checker-compat-qual-2.0.0.jar;C:\Users\rogelio.velazquez\.m2\repository\com\google\errorprone\error_prone_annotations\2.1.3\error_prone_annotations-2.1.3.jar;C:\Users\rogelio.velazquez\.m2\repository\com\google\j2objc\j2objc-annotations\1.1\j2objc-annotations-1.1.jar;C:\Users\rogelio.velazquez\.m2\repository\org\codehaus\mojo\animal-sniffer-annotations\1.14\animal-sniffer-annotations-1.14.jar;C:\Users\rogelio.velazquez\.m2\repository\com\squareup\okhttp3\okhttp\3.11.0\okhttp-3.11.0.jar;C:\Users\rogelio.velazquez\.m2\repository\com\squareup\okio\okio\1.14.0\okio-1.14.0.jar;C:\Users\rogelio.velazquez\.m2\repository\com\squareup\retrofit2\retrofit\2.5.0\retrofit-2.5.0.jar;C:\Users\rogelio.velazquez\.m2\repository\com\squareup\retrofit2\converter-jackson\2.5.0\converter-jackson-2.5.0.jar;C:\Users\rogelio.velazquez\.m2\repository\com\fasterxml\jackson\core\jackson-databind\2.9.4\jackson-databind-2.9.4.jar;C:\Users\rogelio.velazquez\.m2\repository\com\fasterxml\jackson\core\jackson-annotations\2.9.0\jackson-annotations-2.9.0.jar;C:\Users\rogelio.velazquez\.m2\repository\com\fasterxml\jackson\core\jackson-core\2.9.4\jackson-core-2.9.4.jar;C:\Users\rogelio.velazquez\.m2\repository\com\squareup\retrofit2\converter-gson\2.5.0\converter-gson-2.5.0.jar;C:\Users\rogelio.velazquez\.m2\repository\com\google\code\gson\gson\2.8.2\gson-2.8.2.jar;C:\Users\rogelio.velazquez\.m2\repository\com\squareup\retrofit2\converter-scalars\2.5.0\converter-scalars-2.5.0.jar;C:\Users\rogelio.velazquez\.m2\repository\com\squareup\okhttp3\logging-interceptor\3.9.0\logging-interceptor-3.9.0.jar;C:\Users\rogelio.velazquez\.m2\repository\org\slf4j\slf4j-api\1.7.30\slf4j-api-1.7.30.jar;C:\Users\rogelio.velazquez\.m2\repository\org\slf4j\slf4j-log4j12\1.7.30\slf4j-log4j12-1.7.30.jar;C:\Users\rogelio.velazquez\.m2\repository\log4j\log4j\1.2.17\log4j-1.2.17.jar;C:\Users\rogelio.velazquez\.m2\repository\org\assertj\assertj-core\3.19.0\assertj-core-3.19.0.jar;"/>
    <property name="sun.cpu.endian" value="little"/>
    <property name="user.home" value="C:\Users\rogelio.velazquez"/>
    <property name="user.language" value="en"/>
    <property name="java.specification.vendor" value="Oracle Corporation"/>
    <property name="java.home" value="C:\Users\rogelio.velazquez\.jdks\corretto-1.8.0_292\jre"/>
    <property name="basedir" value="C:\ProgA\WorkSpace\Auto-Pokemon"/>
    <property name="file.separator" value="\"/>
    <property name="line.separator" value="&#10;"/>
    <property name="java.vm.specification.vendor" value="Oracle Corporation"/>
    <property name="java.specification.name" value="Java Platform API Specification"/>
    <property name="java.awt.graphicsenv" value="sun.awt.Win32GraphicsEnvironment"/>
    <property name="surefire.real.class.path" value="C:\Users\rogelio.velazquez\AppData\Local\Temp\surefire4327925183247744132\surefirebooter4485058144322789421.jar"/>
    <property name="sun.boot.class.path" value="C:\Users\rogelio.velazquez\.jdks\corretto-1.8.0_292\jre\lib\resources.jar;C:\Users\rogelio.velazquez\.jdks\corretto-1.8.0_292\jre\lib\rt.jar;C:\Users\rogelio.velazquez\.jdks\corretto-1.8.0_292\jre\lib\sunrsasign.jar;C:\Users\rogelio.velazquez\.jdks\corretto-1.8.0_292\jre\lib\jsse.jar;C:\Users\rogelio.velazquez\.jdks\corretto-1.8.0_292\jre\lib\jce.jar;C:\Users\rogelio.velazquez\.jdks\corretto-1.8.0_292\jre\lib\charsets.jar;C:\Users\rogelio.velazquez\.jdks\corretto-1.8.0_292\jre\lib\jfr.jar;C:\Users\rogelio.velazquez\.jdks\corretto-1.8.0_292\jre\classes"/>
    <property name="user.script" value=""/>
    <property name="sun.management.compiler" value="HotSpot 64-Bit Tiered Compilers"/>
    <property name="java.runtime.version" value="1.8.0_292-b10"/>
    <property name="user.name" value="rogelio.velazquez"/>
    <property name="path.separator" value=";"/>
    <property name="os.version" value="10.0"/>
    <property name="java.endorsed.dirs" value="C:\Users\rogelio.velazquez\.jdks\corretto-1.8.0_292\jre\lib\endorsed"/>
    <property name="java.runtime.name" value="OpenJDK Runtime Environment"/>
    <property name="file.encoding" value="Cp1252"/>
    <property name="java.vm.name" value="OpenJDK 64-Bit Server VM"/>
    <property name="localRepository" value="C:\Users\rogelio.velazquez\.m2\repository"/>
    <property name="java.vendor.url.bug" value="https://github.com/corretto/corretto-8/issues/"/>
    <property name="java.io.tmpdir" value="C:\Users\ROGELI~1.VEL\AppData\Local\Temp\"/>
    <property name="java.version" value="1.8.0_292"/>
    <property name="user.dir" value="C:\ProgA\WorkSpace\Auto-Pokemon"/>
    <property name="os.arch" value="amd64"/>
    <property name="java.vm.specification.name" value="Java Virtual Machine Specification"/>
    <property name="java.awt.printerjob" value="sun.awt.windows.WPrinterJob"/>
    <property name="sun.os.patch.level" value=""/>
    <property name="java.library.path" value="C:\Users\rogelio.velazquez\.jdks\corretto-1.8.0_292\jre\bin;C:\Windows\Sun\Java\bin;C:\Windows\system32;C:\Windows;C:\Windows\system32;C:\Windows;C:\Windows\System32\Wbem;C:\Windows\System32\WindowsPowerShell\v1.0\;C:\Windows\System32\OpenSSH\;C:\ProgA\Environment\apache-maven-3.8.1\bin;C:\Users\rogelio.velazquez\.jdks\corretto-1.8.0_292\bin;C:\Users\rogelio.velazquez\AppData\Local\Microsoft\WindowsApps;;."/>
    <property name="java.vm.info" value="mixed mode"/>
    <property name="java.vendor" value="Amazon.com Inc."/>
    <property name="java.vm.version" value="25.292-b10"/>
    <property name="java.ext.dirs" value="C:\Users\rogelio.velazquez\.jdks\corretto-1.8.0_292\jre\lib\ext;C:\Windows\Sun\Java\lib\ext"/>
    <property name="sun.io.unicode.encoding" value="UnicodeLittle"/>
    <property name="java.class.version" value="52.0"/>
  </properties>
  <testcase name="test002" classname="com.rogelio.mx.test.Tests" time="5.407">
    <system-err><![CDATA[May 11, 2021 1:13:33 AM okhttp3.internal.platform.Platform log
INFO: --> GET https://pokeapi.co/api/v2/pokemon?offset=20&limit=20
May 11, 2021 1:13:33 AM okhttp3.internal.platform.Platform log
INFO: --> END GET
May 11, 2021 1:13:34 AM okhttp3.internal.platform.Platform log
INFO: <-- 200 https://pokeapi.co/api/v2/pokemon?offset=20&limit=20 (285ms)
May 11, 2021 1:13:34 AM okhttp3.internal.platform.Platform log
INFO: date: Tue, 11 May 2021 06:13:37 GMT
May 11, 2021 1:13:34 AM okhttp3.internal.platform.Platform log
INFO: content-type: application/json; charset=utf-8
May 11, 2021 1:13:34 AM okhttp3.internal.platform.Platform log
INFO: access-control-allow-origin: *
May 11, 2021 1:13:34 AM okhttp3.internal.platform.Platform log
INFO: cache-control: public, max-age=86400, s-maxage=86400
May 11, 2021 1:13:34 AM okhttp3.internal.platform.Platform log
INFO: etag: W/"5bd-TgkQoQBfi6p5AftPliBuf0ChBZA"
May 11, 2021 1:13:34 AM okhttp3.internal.platform.Platform log
INFO: function-execution-id: 6jocf7fmutcn
May 11, 2021 1:13:34 AM okhttp3.internal.platform.Platform log
INFO: x-cloud-trace-context: 9344d9e02ff499b90ed601545ca88ac0
May 11, 2021 1:13:34 AM okhttp3.internal.platform.Platform log
INFO: x-country-code: MX
May 11, 2021 1:13:34 AM okhttp3.internal.platform.Platform log
INFO: x-orig-accept-language: en-US,en;q=0.9
May 11, 2021 1:13:34 AM okhttp3.internal.platform.Platform log
INFO: x-powered-by: Express
May 11, 2021 1:13:34 AM okhttp3.internal.platform.Platform log
INFO: x-served-by: cache-dfw18668-DFW
May 11, 2021 1:13:34 AM okhttp3.internal.platform.Platform log
INFO: x-cache: HIT
May 11, 2021 1:13:34 AM okhttp3.internal.platform.Platform log
INFO: x-cache-hits: 1
May 11, 2021 1:13:34 AM okhttp3.internal.platform.Platform log
INFO: x-timer: S1620100972.314628,VS0,VE1
May 11, 2021 1:13:34 AM okhttp3.internal.platform.Platform log
INFO: vary: Accept-Encoding,cookie,need-authorization, x-fh-requested-host, accept-encoding
May 11, 2021 1:13:34 AM okhttp3.internal.platform.Platform log
INFO: cf-cache-status: HIT
May 11, 2021 1:13:34 AM okhttp3.internal.platform.Platform log
INFO: age: 45875
May 11, 2021 1:13:34 AM okhttp3.internal.platform.Platform log
INFO: accept-ranges: bytes
May 11, 2021 1:13:34 AM okhttp3.internal.platform.Platform log
INFO: cf-request-id: 09fba8518600005247e78c0000000001
May 11, 2021 1:13:34 AM okhttp3.internal.platform.Platform log
INFO: expect-ct: max-age=604800, report-uri="https://report-uri.cloudflare.com/cdn-cgi/beacon/expect-ct"
May 11, 2021 1:13:34 AM okhttp3.internal.platform.Platform log
INFO: report-to: {"endpoints":[{"url":"https:\/\/a.nel.cloudflare.com\/report?s=WoJEIgBffbbfe4LiDQZFIrxTnZNNw9aY49Fq0L%2BnoHvrH%2BleslX1uYSAVBgim7yUOyLqkGqLpOOT5aUQPSzeBEQpPNQibGbPwybW"}],"group":"cf-nel","max_age":604800}
May 11, 2021 1:13:34 AM okhttp3.internal.platform.Platform log
INFO: nel: {"report_to":"cf-nel","max_age":604800}
May 11, 2021 1:13:34 AM okhttp3.internal.platform.Platform log
INFO: server: cloudflare
May 11, 2021 1:13:34 AM okhttp3.internal.platform.Platform log
INFO: cf-ray: 64d9432f3e7e5247-MEX
May 11, 2021 1:13:34 AM okhttp3.internal.platform.Platform log
INFO: alt-svc: h3-27=":443"; ma=86400, h3-28=":443"; ma=86400, h3-29=":443"; ma=86400
May 11, 2021 1:13:34 AM okhttp3.internal.platform.Platform log
INFO: 
May 11, 2021 1:13:34 AM okhttp3.internal.platform.Platform log
INFO: {"count":1118,"next":"https://pokeapi.co/api/v2/pokemon?offset=40&limit=20","previous":"https://pokeapi.co/api/v2/pokemon?offset=0&limit=20","results":[{"name":"spearow","url":"https://pokeapi.co/api/v2/pokemon/21/"},{"name":"fearow","url":"https://pokeapi.co/api/v2/pokemon/22/"},{"name":"ekans","url":"https://pokeapi.co/api/v2/pokemon/23/"},{"name":"arbok","url":"https://pokeapi.co/api/v2/pokemon/24/"},{"name":"pikachu","url":"https://pokeapi.co/api/v2/pokemon/25/"},{"name":"raichu","url":"https://pokeapi.co/api/v2/pokemon/26/"},{"name":"sandshrew","url":"https://pokeapi.co/api/v2/pokemon/27/"},{"name":"sandslash","url":"https://pokeapi.co/api/v2/pokemon/28/"},{"name":"nidoran-f","url":"https://pokeapi.co/api/v2/pokemon/29/"},{"name":"nidorina","url":"https://pokeapi.co/api/v2/pokemon/30/"},{"name":"nidoqueen","url":"https://pokeapi.co/api/v2/pokemon/31/"},{"name":"nidoran-m","url":"https://pokeapi.co/api/v2/pokemon/32/"},{"name":"nidorino","url":"https://pokeapi.co/api/v2/pokemon/33/"},{"name":"nidoking","url":"https://pokeapi.co/api/v2/pokemon/34/"},{"name":"clefairy","url":"https://pokeapi.co/api/v2/pokemon/35/"},{"name":"clefable","url":"https://pokeapi.co/api/v2/pokemon/36/"},{"name":"vulpix","url":"https://pokeapi.co/api/v2/pokemon/37/"},{"name":"ninetales","url":"https://pokeapi.co/api/v2/pokemon/38/"},{"name":"jigglypuff","url":"https://pokeapi.co/api/v2/pokemon/39/"},{"name":"wigglytuff","url":"https://pokeapi.co/api/v2/pokemon/40/"}]}
May 11, 2021 1:13:34 AM okhttp3.internal.platform.Platform log
INFO: <-- END HTTP (1469-byte body)
]]></system-err>
  </testcase>
  <testcase name="test003" classname="com.rogelio.mx.test.Tests" time="4.977">
    <system-err><![CDATA[May 11, 2021 1:13:38 AM okhttp3.internal.platform.Platform log
INFO: --> GET https://pokeapi.co/api/v2/contest-type
May 11, 2021 1:13:38 AM okhttp3.internal.platform.Platform log
INFO: --> END GET
May 11, 2021 1:13:38 AM okhttp3.internal.platform.Platform log
INFO: <-- 200 https://pokeapi.co/api/v2/contest-type (19ms)
May 11, 2021 1:13:38 AM okhttp3.internal.platform.Platform log
INFO: date: Tue, 11 May 2021 06:13:42 GMT
May 11, 2021 1:13:38 AM okhttp3.internal.platform.Platform log
INFO: content-type: application/json; charset=utf-8
May 11, 2021 1:13:38 AM okhttp3.internal.platform.Platform log
INFO: access-control-allow-origin: *
May 11, 2021 1:13:38 AM okhttp3.internal.platform.Platform log
INFO: cache-control: public, max-age=86400, s-maxage=86400
May 11, 2021 1:13:38 AM okhttp3.internal.platform.Platform log
INFO: etag: W/"181-VUN11XfJqCpc9UDV2Y35rnNhwMo"
May 11, 2021 1:13:38 AM okhttp3.internal.platform.Platform log
INFO: function-execution-id: nzftsk4krbzt
May 11, 2021 1:13:38 AM okhttp3.internal.platform.Platform log
INFO: x-cloud-trace-context: f371d3acc1df3d103061c8555bd91d2e
May 11, 2021 1:13:38 AM okhttp3.internal.platform.Platform log
INFO: x-country-code: MX
May 11, 2021 1:13:38 AM okhttp3.internal.platform.Platform log
INFO: x-powered-by: Express
May 11, 2021 1:13:38 AM okhttp3.internal.platform.Platform log
INFO: x-served-by: cache-dal21274-DAL
May 11, 2021 1:13:38 AM okhttp3.internal.platform.Platform log
INFO: x-cache: MISS
May 11, 2021 1:13:38 AM okhttp3.internal.platform.Platform log
INFO: x-cache-hits: 0
May 11, 2021 1:13:38 AM okhttp3.internal.platform.Platform log
INFO: x-timer: S1620709753.931759,VS0,VE200
May 11, 2021 1:13:38 AM okhttp3.internal.platform.Platform log
INFO: vary: Accept-Encoding,cookie,need-authorization, x-fh-requested-host, accept-encoding
May 11, 2021 1:13:38 AM okhttp3.internal.platform.Platform log
INFO: cf-cache-status: HIT
May 11, 2021 1:13:38 AM okhttp3.internal.platform.Platform log
INFO: age: 3869
May 11, 2021 1:13:38 AM okhttp3.internal.platform.Platform log
INFO: cf-request-id: 09fba8642e00005247cebaa000000001
May 11, 2021 1:13:38 AM okhttp3.internal.platform.Platform log
INFO: expect-ct: max-age=604800, report-uri="https://report-uri.cloudflare.com/cdn-cgi/beacon/expect-ct"
May 11, 2021 1:13:38 AM okhttp3.internal.platform.Platform log
INFO: report-to: {"endpoints":[{"url":"https:\/\/a.nel.cloudflare.com\/report?s=M0U78QkLnKTYP0q%2F0cMkiIf9foTBr%2F1d7Q5in10bS1Z42G23pA4AQ%2BEXlraesMPbGX4Qn1bKWR6RgY0i7viIxoa39r4WOMVmSxVx"}],"group":"cf-nel","max_age":604800}
May 11, 2021 1:13:38 AM okhttp3.internal.platform.Platform log
INFO: nel: {"report_to":"cf-nel","max_age":604800}
May 11, 2021 1:13:38 AM okhttp3.internal.platform.Platform log
INFO: server: cloudflare
May 11, 2021 1:13:38 AM okhttp3.internal.platform.Platform log
INFO: cf-ray: 64d9434d1e0e5247-MEX
May 11, 2021 1:13:38 AM okhttp3.internal.platform.Platform log
INFO: alt-svc: h3-27=":443"; ma=86400, h3-28=":443"; ma=86400, h3-29=":443"; ma=86400
May 11, 2021 1:13:38 AM okhttp3.internal.platform.Platform log
INFO: 
May 11, 2021 1:13:38 AM okhttp3.internal.platform.Platform log
INFO: {"count":5,"next":null,"previous":null,"results":[{"name":"cool","url":"https://pokeapi.co/api/v2/contest-type/1/"},{"name":"beauty","url":"https://pokeapi.co/api/v2/contest-type/2/"},{"name":"cute","url":"https://pokeapi.co/api/v2/contest-type/3/"},{"name":"smart","url":"https://pokeapi.co/api/v2/contest-type/4/"},{"name":"tough","url":"https://pokeapi.co/api/v2/contest-type/5/"}]}
May 11, 2021 1:13:38 AM okhttp3.internal.platform.Platform log
INFO: <-- END HTTP (385-byte body)
log4j:WARN No appenders could be found for logger (com.rogelio.mx.service.PokemonService).
log4j:WARN Please initialize the log4j system properly.
log4j:WARN See http://logging.apache.org/log4j/1.2/faq.html#noconfig for more info.
]]></system-err>
  </testcase>
  <testcase name="testOne" classname="com.rogelio.mx.test.Tests" time="5.044">
    <system-err><![CDATA[May 11, 2021 1:13:43 AM okhttp3.internal.platform.Platform log
INFO: --> GET https://pokeapi.co/api/v2/pokemon?offset=20&limit=20
May 11, 2021 1:13:43 AM okhttp3.internal.platform.Platform log
INFO: --> END GET
May 11, 2021 1:13:43 AM okhttp3.internal.platform.Platform log
INFO: <-- 200 https://pokeapi.co/api/v2/pokemon?offset=20&limit=20 (13ms)
May 11, 2021 1:13:43 AM okhttp3.internal.platform.Platform log
INFO: date: Tue, 11 May 2021 06:13:47 GMT
May 11, 2021 1:13:43 AM okhttp3.internal.platform.Platform log
INFO: content-type: application/json; charset=utf-8
May 11, 2021 1:13:43 AM okhttp3.internal.platform.Platform log
INFO: access-control-allow-origin: *
May 11, 2021 1:13:43 AM okhttp3.internal.platform.Platform log
INFO: cache-control: public, max-age=86400, s-maxage=86400
May 11, 2021 1:13:43 AM okhttp3.internal.platform.Platform log
INFO: etag: W/"5bd-TgkQoQBfi6p5AftPliBuf0ChBZA"
May 11, 2021 1:13:43 AM okhttp3.internal.platform.Platform log
INFO: function-execution-id: 6jocf7fmutcn
May 11, 2021 1:13:43 AM okhttp3.internal.platform.Platform log
INFO: x-cloud-trace-context: 9344d9e02ff499b90ed601545ca88ac0
May 11, 2021 1:13:43 AM okhttp3.internal.platform.Platform log
INFO: x-country-code: MX
May 11, 2021 1:13:43 AM okhttp3.internal.platform.Platform log
INFO: x-orig-accept-language: en-US,en;q=0.9
May 11, 2021 1:13:43 AM okhttp3.internal.platform.Platform log
INFO: x-powered-by: Express
May 11, 2021 1:13:43 AM okhttp3.internal.platform.Platform log
INFO: x-served-by: cache-dfw18668-DFW
May 11, 2021 1:13:43 AM okhttp3.internal.platform.Platform log
INFO: x-cache: HIT
May 11, 2021 1:13:43 AM okhttp3.internal.platform.Platform log
INFO: x-cache-hits: 1
May 11, 2021 1:13:43 AM okhttp3.internal.platform.Platform log
INFO: x-timer: S1620100972.314628,VS0,VE1
May 11, 2021 1:13:43 AM okhttp3.internal.platform.Platform log
INFO: vary: Accept-Encoding,cookie,need-authorization, x-fh-requested-host, accept-encoding
May 11, 2021 1:13:43 AM okhttp3.internal.platform.Platform log
INFO: cf-cache-status: HIT
May 11, 2021 1:13:43 AM okhttp3.internal.platform.Platform log
INFO: age: 45885
May 11, 2021 1:13:43 AM okhttp3.internal.platform.Platform log
INFO: accept-ranges: bytes
May 11, 2021 1:13:43 AM okhttp3.internal.platform.Platform log
INFO: cf-request-id: 09fba877ca00005247f308b000000001
May 11, 2021 1:13:43 AM okhttp3.internal.platform.Platform log
INFO: expect-ct: max-age=604800, report-uri="https://report-uri.cloudflare.com/cdn-cgi/beacon/expect-ct"
May 11, 2021 1:13:43 AM okhttp3.internal.platform.Platform log
INFO: report-to: {"endpoints":[{"url":"https:\/\/a.nel.cloudflare.com\/report?s=4xtQqWDXWogwzgAxUglrzTjL5Bf%2B%2BuACDpWEJitxjSsa48zxW6zDa7opFV9y8Ih8fQB1%2BxI5Ew3cNgUBYzm7mVzAqolZo74AXyO4"}],"group":"cf-nel","max_age":604800}
May 11, 2021 1:13:43 AM okhttp3.internal.platform.Platform log
INFO: nel: {"report_to":"cf-nel","max_age":604800}
May 11, 2021 1:13:43 AM okhttp3.internal.platform.Platform log
INFO: server: cloudflare
May 11, 2021 1:13:43 AM okhttp3.internal.platform.Platform log
INFO: cf-ray: 64d9436c7f235247-MEX
May 11, 2021 1:13:43 AM okhttp3.internal.platform.Platform log
INFO: alt-svc: h3-27=":443"; ma=86400, h3-28=":443"; ma=86400, h3-29=":443"; ma=86400
May 11, 2021 1:13:43 AM okhttp3.internal.platform.Platform log
INFO: 
May 11, 2021 1:13:43 AM okhttp3.internal.platform.Platform log
INFO: {"count":1118,"next":"https://pokeapi.co/api/v2/pokemon?offset=40&limit=20","previous":"https://pokeapi.co/api/v2/pokemon?offset=0&limit=20","results":[{"name":"spearow","url":"https://pokeapi.co/api/v2/pokemon/21/"},{"name":"fearow","url":"https://pokeapi.co/api/v2/pokemon/22/"},{"name":"ekans","url":"https://pokeapi.co/api/v2/pokemon/23/"},{"name":"arbok","url":"https://pokeapi.co/api/v2/pokemon/24/"},{"name":"pikachu","url":"https://pokeapi.co/api/v2/pokemon/25/"},{"name":"raichu","url":"https://pokeapi.co/api/v2/pokemon/26/"},{"name":"sandshrew","url":"https://pokeapi.co/api/v2/pokemon/27/"},{"name":"sandslash","url":"https://pokeapi.co/api/v2/pokemon/28/"},{"name":"nidoran-f","url":"https://pokeapi.co/api/v2/pokemon/29/"},{"name":"nidorina","url":"https://pokeapi.co/api/v2/pokemon/30/"},{"name":"nidoqueen","url":"https://pokeapi.co/api/v2/pokemon/31/"},{"name":"nidoran-m","url":"https://pokeapi.co/api/v2/pokemon/32/"},{"name":"nidorino","url":"https://pokeapi.co/api/v2/pokemon/33/"},{"name":"nidoking","url":"https://pokeapi.co/api/v2/pokemon/34/"},{"name":"clefairy","url":"https://pokeapi.co/api/v2/pokemon/35/"},{"name":"clefable","url":"https://pokeapi.co/api/v2/pokemon/36/"},{"name":"vulpix","url":"https://pokeapi.co/api/v2/pokemon/37/"},{"name":"ninetales","url":"https://pokeapi.co/api/v2/pokemon/38/"},{"name":"jigglypuff","url":"https://pokeapi.co/api/v2/pokemon/39/"},{"name":"wigglytuff","url":"https://pokeapi.co/api/v2/pokemon/40/"}]}
May 11, 2021 1:13:43 AM okhttp3.internal.platform.Platform log
INFO: <-- END HTTP (1469-byte body)
]]></system-err>
  </testcase>
</testsuite>